NAME,ADDRESS,PHONE,WEBSITE,DECISION MAKER,NOTES
Fred Astaire Dance Studios,"340 Old Mchenry RdLong Grove, IL 60047",(847) 634-1100
Trilogy School-Performing Arts,"490 E Il Route 22Lake Zurich, IL 60047",(847) 438-6424
Denise Sabala Dance Studio II,"560 W Il Route 22Lake Zurich, IL 60047",(847) 438-5569
Netraj Dance Academy,"1365 Gettysburg RdLong Grove, IL 60047",(847) 634-4679
Studio Phoenix,Serving the 60047 Area.,(847) 701-4091
Center for Ballroom & Dance,"21540 W Field Pkwy Ste 620Barrington, IL 60010",(847) 438-4500
Studio Viva,"41 E Northwest HwyPalatine, IL 60067",(847) 991-0414
Encore Dance Center,"50 Lakeview Pkwy Ste 116Vernon Hills, IL 60061",(847) 816-0400
Born To Dance Inc,"323 W Northwest HwyPalatine, IL 60067",(847) 358-6820
Bataille Academie Of The Danse,"102 N Cook St Ste 3Barrington, IL 60010",(847) 381-1459
Dynamic Perception Dance Co,"4219 N Bloomington AveArlington Heights, IL 60004",(217) 201-9711
Newcastle Dance In Theatre Spl,"1207 Mchenry RdBuffalo Grove, IL 60089",(847) 383-5910
North Ave Dance Studio Inc,"297 N Northwest HwyPalatine, IL 60067",(847) 359-8062
Soul 2 Sole Dance Inc.,"1350 Abbott CtBuffalo Grove, IL 60089",(847) 276-2820
Dress Up & Dance!,"206 Terrace DrMundelein, IL 60060",(224) 475-0984
Barrington Dance Academy,"758 W Northwest HwyBarrington, IL 60010",(847) 382-6333
Mazurdance,"1341 W Dundee RdBuffalo Grove, IL 60089",(847) 506-9390
Reverie Dance Academy,"1157 N Arlington Heights RdBuffalo Grove, IL 60089",(847) 215-1901
Marcia's Dance Studio,"400 W Half Day RdBuffalo Grove, IL 60089",(847) 821-8637
Fred Astaire Dance Studio,"404 W Half Day RdBuffalo Grove, IL 60089",(847) 634-1100
Kracklauer Dance Studio,"100 N Seymour AveMundelein, IL 60060",(847) 566-0675
Dance Project Inc,"1762 W Algonquin RdHoffman Estates, IL 60192",(847) 991-3117
Dancenter North,"540 N Milwaukee AveLibertyville, IL 60048",(847) 367-7970
Vivian's Piano Studio,"1008 Sherwood DrProspect Heights, IL 60070",(847) 537-1676
Academy Of Ballet & Art Inc,"254 Mchenry RdWheeling, IL 60090",(847) 537-6868
Lincolnshire Academy of Dance,"1260 S Milwaukee Ave Ste 200Vernon Hills, IL 60061",(847) 955-1060
The Center For Ballroom & Dance,"300 Village GrnLincolnshire, IL 60069",(224) 352-2930
Dance Academy Of Libertyville,"1137 S Milwaukee AveLibertyville, IL 60048",(847) 247-1327
Dance Plus Productions,"1320 Inverrary LnDeerfield, IL 60015",(847) 459-8357
Buffalo Grove Gymnastics Ltd,"1362 Barclay BlvdBuffalo Grove, IL 60089",(847) 459-8842
McDonald Dance Academy,"25 S Dunton Ave, Arlington Heights, IL 60005",(847) 342-1060
Northwest Ballet Academy Ltd,"1069 N Salem Dr, Schaumburg, IL 60194",(708) 697-8974
McDonald Dance Academy,"25 S Dunton Ave, Arlington Heights, IL 60005",(847) 906-0845
Evanston School of Ballet,"1933 Central St, Evanston, IL 60201",(847) 475-9225
McDonald Dance Academy,"25 S Dunton Ave, Arlington Heights, IL 60005",(847) 752-4565
North Shore School Of Dance,"505 Laurel Ave, Highland Park, IL 60035",(847) 432-2060
